CUs STEP ERROR MIN AVG MAX P10 P50 P90 P95 APDEX
1 018.001 0 0.0713219642639 0.0713219642639 0.0713219642639 0.0713219642639 0.0713219642639 0.0713219642639 0.0713219642639 1.0
50 018.001 0 0.186392068863 0.459540290833 0.626038074493 0.355543136597 0.474890947342 0.581045150757 0.607453107834 1.0
100 018.001 0 0.506484985352 1.21942652702 1.6489610672 0.684190988541 1.34245491028 1.53677296638 1.57851696014 0.93
