CUs STEP ERROR MIN AVG MAX P10 P50 P90 P95 APDEX
1 044.001 0 0.0768508911133 0.0768508911133 0.0768508911133 0.0768508911133 0.0768508911133 0.0768508911133 0.0768508911133 1.0
50 044.001 0 0.19335603714 0.436187076569 0.634054899216 0.223478078842 0.446746110916 0.633202075958 0.634054899216 1.0
