CUs STEP ERROR MIN AVG MAX P10 P50 P90 P95 APDEX
1 005.001 0 0.0736048221588 0.0736048221588 0.0736048221588 0.0736048221588 0.0736048221588 0.0736048221588 0.0736048221588 1.0
50 005.001 0 0.313405036926 0.554218626022 0.684945106506 0.489469051361 0.564291000366 0.648407936096 0.668187856674 1.0
100 005.001 0 0.553791046143 1.13662028313 1.48117613792 0.762219905853 1.22548294067 1.40303492546 1.44579792023 1.0
150 005.001 0 1.57167291641 1.79283983231 2.09743690491 1.63126993179 1.79285407066 1.95599913597 1.97231888771 0.5
