CUs STEP ERROR MIN AVG MAX P10 P50 P90 P95 APDEX
1 043.001 0 0.0729990005493 0.0729990005493 0.0729990005493 0.0729990005493 0.0729990005493 0.0729990005493 0.0729990005493 1.0
50 043.001 0 0.152459144592 0.428375186591 0.636062860489 0.227120161057 0.454921960831 0.584348917007 0.603202819824 1.0
