CUs STEP ERROR MIN AVG MAX P10 P50 P90 P95 APDEX
1 013.001 0 0.072242975235 0.072242975235 0.072242975235 0.072242975235 0.072242975235 0.072242975235 0.072242975235 1.0
50 013.001 0 0.129525184631 0.469135270119 0.644299030304 0.260111808777 0.521805047989 0.624216079712 0.627738952637 1.0
100 013.001 0 0.509244203568 1.15487218142 1.49282479286 0.754034042358 1.25136303902 1.4022500515 1.42990398407 1.0
150 013.001 0 1.43064212799 1.79497617404 2.02379584312 1.64796304703 1.79527878761 1.94314289093 1.97351789474 0.503333333333
