CUs STEP ERROR MIN AVG MAX P10 P50 P90 P95 APDEX
1 012.001 0 0.10421204567 0.10421204567 0.10421204567 0.10421204567 0.10421204567 0.10421204567 0.10421204567 1.0
50 012.001 0 1.80327510834 2.02334402856 2.2186999321 1.93662810326 2.00790810585 2.18799090385 2.20109009743 0.5
