CUs STEP ERROR MIN AVG MAX P10 P50 P90 P95 APDEX
1 001.001 0 0.0645108222961 0.0645108222961 0.0645108222961 0.0645108222961 0.0645108222961 0.0645108222961 0.0645108222961 1.0
50 001.001 0 1.91710686684 2.16753586769 3.52049088478 1.97098302841 2.1142039299 2.27982211113 2.30094790459 0.5
100 001.001 0 3.54637503624 3.99465114832 6.653414011 3.68851494789 3.95124602318 4.24250912666 4.29231405258 0.49
150 001.001 0 5.84455299377 6.79786454201 10.7144019604 6.0483250618 6.33946490288 9.60546302795 9.66664099693 0.0333333333333
