Timeline RPS
1509025823 1
1509025824 4
1509025825 4
1509025826 3
1509025827 3
1509025828 3
1509025829 3
1509025830 4
1509025831 2
1509025832 3
1509025833 3
1509025834 3
1509025835 3
1509025836 4
1509025837 3
1509025838 3
1509025839 2
1509025840 3
1509025841 2
1509025842 4
1509025843 2
1509025844 4
1509025845 4
1509025846 2
1509025847 4
1509025848 2
1509025849 2
1509025850 3
1509025851 2
1509025852 2
1509025853 4
