CUs STEP ERROR MIN AVG MAX P10 P50 P90 P95 APDEX
1 042.001 0 0.0662009716034 0.0662009716034 0.0662009716034 0.0662009716034 0.0662009716034 0.0662009716034 0.0662009716034 1.0
50 042.001 0 0.131824016571 0.233004541397 0.362656831741 0.163510084152 0.23269701004 0.310796976089 0.324402093887 1.0
