CUs STEP ERROR MIN AVG MAX P10 P50 P90 P95 APDEX
1 056.001 0 0.0673568248749 0.0673568248749 0.0673568248749 0.0673568248749 0.0673568248749 0.0673568248749 0.0673568248749 1.0
50 056.001 0 0.120311975479 0.229747514725 0.313750982285 0.177447080612 0.224211215973 0.299827814102 0.302425861359 1.0
