CUs STEP ERROR MIN AVG MAX P10 P50 P90 P95 APDEX
1 062.001 0 0.0362901687622 0.0362901687622 0.0362901687622 0.0362901687622 0.0362901687622 0.0362901687622 0.0362901687622 1.0
50 062.001 0 0.120687007904 0.224205592099 0.30521607399 0.135593891144 0.219242811203 0.303614854813 0.30521607399 1.0
