CUs STEP ERROR MIN AVG MAX P10 P50 P90 P95 APDEX
1 003.001 0 0.06773686409 0.06773686409 0.06773686409 0.06773686409 0.06773686409 0.06773686409 0.06773686409 1.0
50 003.001 0 0.041937828064 0.270145309215 0.397522926331 0.123923063278 0.281841039658 0.381884098053 0.392632961273 1.0
100 003.001 0 0.410238981247 0.677283371649 0.980336904526 0.533969163895 0.676347970963 0.849508047104 0.875441789627 1.0
150 003.001 0 0.79207611084 1.09875504054 1.44727396965 0.887891769409 1.10057902336 1.27792906761 1.31668615341 1.0
