CUs STEP ERROR MIN AVG MAX P10 P50 P90 P95 APDEX
1 057.001 0 0.0715260505676 0.0715260505676 0.0715260505676 0.0715260505676 0.0715260505676 0.0715260505676 0.0715260505676 1.0
50 057.001 0 0.116939783096 0.220872607231 0.323570966721 0.156654834747 0.225368022919 0.278672933578 0.294612884521 1.0
