CUs STEP ERROR MIN AVG MAX P10 P50 P90 P95 APDEX
1 045.001 0 0.0250201225281 0.0250201225281 0.0250201225281 0.0250201225281 0.0250201225281 0.0250201225281 0.0250201225281 1.0
50 045.001 0 0.106733083725 0.235540742874 0.376830101013 0.159720897675 0.23034286499 0.326862812042 0.333687067032 1.0
