CUs STEP ERROR MIN AVG MAX P10 P50 P90 P95 APDEX
1 003.001 0 0.0723249912262 0.0738765001297 0.0754280090332 0.0723249912262 0.0754280090332 0.0754280090332 0.0754280090332 1.0
50 003.001 0 0.17483997345 0.402860565185 0.622272968292 0.266147136688 0.436398029327 0.521162033081 0.579836130142 1.0
100 003.001 0 0.454071998596 0.992955398559 1.38355016708 0.531476020813 1.08435297012 1.29791593552 1.34823799133 1.0
150 003.001 0 1.02827310562 1.70362621506 2.16702604294 1.25325894356 1.75240302086 2.03612279892 2.07024097443 0.607382550336
