CUs STEP ERROR MIN AVG MAX P10 P50 P90 P95 APDEX
1 028.001 0 0.0341629981995 0.0341629981995 0.0341629981995 0.0341629981995 0.0341629981995 0.0341629981995 0.0341629981995 1.0
50 028.001 0 0.0985469818115 0.443221006393 0.728062152863 0.155801057816 0.504367113113 0.646917104721 0.685631990433 1.0
