CUs STEP ERROR MIN AVG MAX P10 P50 P90 P95 APDEX
1 006.001 0 0.0361928939819 0.0566809177398 0.0771689414978 0.0361928939819 0.0771689414978 0.0771689414978 0.0771689414978 1.0
50 006.001 0 0.197957992554 0.430526752472 0.648869991302 0.250518083572 0.477669000626 0.599233865738 0.611011981964 1.0
100 006.001 0 0.30046916008 1.06360017061 1.32763314247 0.652788877487 1.18182206154 1.28135800362 1.30125188828 1.0
150 006.001 0 0.374169111252 1.64647997061 2.29168987274 0.959056138992 1.82094287872 1.99797391891 2.05039811134 0.63
