CUs STEP ERROR MIN AVG MAX P10 P50 P90 P95 APDEX
1 026.001 0 0.0723600387573 0.0723600387573 0.0723600387573 0.0723600387573 0.0723600387573 0.0723600387573 0.0723600387573 1.0
50 026.001 0 0.0950508117676 0.4616284132 0.712241888046 0.199049949646 0.511818170547 0.656874895096 0.680515050888 1.0
100 026.001 0 0.470741987228 0.67786693573 0.884991884232 0.470741987228 0.884991884232 0.884991884232 0.884991884232 1.0
