CUs STEP ERROR MIN AVG MAX P10 P50 P90 P95 APDEX
1 016.001 0 0.0335891246796 0.0335891246796 0.0335891246796 0.0335891246796 0.0335891246796 0.0335891246796 0.0335891246796 1.0
50 016.001 0 0.163170099258 0.403392333984 0.603787183762 0.231934070587 0.436672925949 0.545186042786 0.57071018219 1.0
100 016.001 0 0.45071387291 1.10176873207 1.41558408737 0.713305950165 1.20566105843 1.35243988037 1.36255979538 1.0
150 016.001 0 0.416393995285 1.38659209541 2.19024205208 0.547539949417 1.55744504929 1.98103904724 2.10131406784 0.740506329114
