CUs STEP ERROR MIN AVG MAX P10 P50 P90 P95 APDEX
1 040.001 0 0.0300989151001 0.0300989151001 0.0300989151001 0.0300989151001 0.0300989151001 0.0300989151001 0.0300989151001 1.0
50 040.001 0 0.469637870789 0.531472325325 0.593306779861 0.469637870789 0.593306779861 0.593306779861 0.593306779861 1.0
