CUs STEP ERROR MIN AVG MAX P10 P50 P90 P95 APDEX
1 012.001 0 0.0717771053314 0.0717771053314 0.0717771053314 0.0717771053314 0.0717771053314 0.0717771053314 0.0717771053314 1.0
50 012.001 0 0.253705024719 0.617211976051 0.879106044769 0.415937900543 0.669941186905 0.818703889847 0.841285943985 1.0
100 012.001 0 0.864722967148 1.37901853561 1.9723508358 1.18007421494 1.35375499725 1.59647989273 1.82276391983 0.885
150 012.001 0 0.765488862991 2.04296438863 2.64863204956 1.14965510368 2.20753788948 2.43259596825 2.50239610672 0.580808080808
