CUs STEP ERROR MIN AVG MAX P10 P50 P90 P95 APDEX
1 032.001 0 0.0298399925232 0.0298399925232 0.0298399925232 0.0298399925232 0.0298399925232 0.0298399925232 0.0298399925232 1.0
50 032.001 0 0.340705871582 0.575093111992 0.825083017349 0.414844036102 0.589759111404 0.761695861816 0.788973808289 1.0
