CUs STEP ERROR MIN AVG MAX P10 P50 P90 P95 APDEX
1 002.001 0 0.0712549686432 0.0712549686432 0.0712549686432 0.0712549686432 0.0712549686432 0.0712549686432 0.0712549686432 1.0
50 002.001 0 0.350852966309 0.586312478902 0.785094022751 0.401719093323 0.622256994247 0.753630876541 0.773757219315 1.0
100 002.001 0 0.781877994537 1.36865479068 1.63946223259 1.19863700867 1.38903784752 1.5350151062 1.60996198654 0.942105263158
150 002.001 0 1.77360200882 2.48004205903 3.07943916321 2.02832889557 2.491065979 2.96261191368 2.98226904869 0.5
