CUs STEP ERROR MIN AVG MAX P10 P50 P90 P95 APDEX
1 006.001 0 0.0284600257874 0.0284600257874 0.0284600257874 0.0284600257874 0.0284600257874 0.0284600257874 0.0284600257874 1.0
50 006.001 0 0.188538074493 0.570959773064 0.83825302124 0.322067022324 0.583671092987 0.762662887573 0.782794952393 1.0
100 006.001 0 0.503708839417 1.40377030373 1.8768901825 1.14473009109 1.45835399628 1.63878393173 1.68592190742 0.79
150 006.001 0 0.454516887665 2.19796866735 3.20561099052 2.00212597847 2.22577190399 2.56017494202 2.62106204033 0.526666666667
